…
r
Copy code
print(data)
Example of the printed data:

yaml
Copy code
# A tibble: 100 × 2
   dates      number_of_marriage
   <date>                <int>
 1 2019-03-16               14
 2 2020-11-22               18
 3 2020-04-18               12
 4 2022-01-19               13
 5 2023-12-23               16
 6 2023-10-05               18
 7 2021-12-20               19
 8 2019-07-26               14
 9 2019-09-18               13
 10 2019-03-03               15
 # … with 90 more rows
…
